{
  "project_info": {
    "project_number": "1036611265406",
    "project_id": "fire-4a1a6",
    "storage_bucket": "fire-4a1a6.appspot.com"
  },
  "client": [
    {
      "client_info": {
        "mobilesdk_app_id": "1:1036611265406:android:311508a842ae559debc92f",
        "android_client_info": {
          "package_name": "com.example.fire"
        }
      },
      "oauth_client": [
        {
          "client_id": "1036611265406-nnmhlsrcm7vfrv9pjkpcab1allgoe24c.apps.googleusercontent.com",
          "client_type": 3
        }
      ],
      "api_key": [
        {
          "current_key": "AIzaSyD69VXQL5GzpPYjlh_Rk7K2GMy0OXNCyOs"
        }
      ],
      "services": {
        "appinvite_service": {
          "other_platform_oauth_client": [
            {
              "client_id": "1036611265406-nnmhlsrcm7vfrv9pjkpcab1allgoe24c.apps.googleusercontent.com",
              "client_type": 3
            }
          ]
        }
      }
    },
    {
      "client_info": {
        "mobilesdk_app_id": "1:1036611265406:android:3457348862c3f0a0ebc92f",
        "android_client_info": {
          "package_name": "com.example.myapplication"
        }
      },
      "oauth_client": [
        {
          "client_id": "1036611265406-nnmhlsrcm7vfrv9pjkpcab1allgoe24c.apps.googleusercontent.com",
          "client_type": 3
        }
      ],
      "api_key": [
        {
          "current_key": "AIzaSyD69VXQL5GzpPYjlh_Rk7K2GMy0OXNCyOs"
        }
      ],
      "services": {
        "appinvite_service": {
          "other_platform_oauth_client": [
            {
              "client_id": "1036611265406-nnmhlsrcm7vfrv9pjkpcab1allgoe24c.apps.googleusercontent.com",
              "client_type": 3
            }
          ]
        }
      }
    }
  ],
  "configuration_version": "1"
}